<svg width="65" height="60" viewBox="0 0 65 60" fill="none" xmlns="http://www.w3.org/2000/svg">
<path d="M9.05655 48.9836L15.1236 52.0007V58.7467C15.1236 59.4386 15.6883 60.0002 16.384 60.0002H29.7432C30.4389 60.0002 31.0035 59.4386 31.0035 58.7467V42.383C31.0035 38.5424 28.1073 35.3586 24.2747 34.9763C24.2596 34.9726 18.9436 34.1465 16.4772 31.6936L13.6466 28.8796C12.6938 27.932 11.4284 27.4105 10.0824 27.4105V17.3829C10.0824 14.6178 7.82145 12.3691 5.04122 12.3691C2.26099 12.3691 0 14.6178 0 17.3829V34.4098C0 37.4381 0.845664 40.4 2.44751 42.9758C4.0481 45.5517 6.33303 47.6299 9.05655 48.9836ZM2.52061 17.3829C2.52061 16.0004 3.6511 14.876 5.04122 14.876C6.43133 14.876 7.56182 16.0004 7.56182 17.3829V28.0824C6.02425 28.966 5.04122 30.6143 5.04122 32.4243C5.04122 33.763 5.5655 35.0215 6.51829 35.9691L12.9723 42.3892C13.4638 42.8781 14.2629 42.8793 14.7544 42.3892C15.2459 41.9004 15.2472 41.1057 14.7544 40.6168L8.30036 34.1967C7.82397 33.7229 7.56182 33.0937 7.56182 32.4243C7.56182 31.3639 8.23735 30.4138 9.24181 30.0603H9.24307C10.1127 29.7545 11.1436 29.9362 11.8645 30.6532L14.6951 33.4672C17.6178 36.3727 24.0012 37.4669 24.0138 37.4707C26.5609 37.7251 28.4829 39.8372 28.4829 42.3842V57.4945H17.6443V51.2273C17.6443 50.7522 17.3746 50.3185 16.9473 50.1067L10.1833 46.7425C5.45712 44.391 2.52061 39.6655 2.52061 34.4098V17.3829Z" fill="#FFA73B"/>
<path d="M55.6626 48.9836C58.3862 47.6286 60.6711 45.5517 62.2717 42.9758C63.8723 40.4 64.7192 37.4381 64.7192 34.4098V17.3829C64.7192 14.6178 62.4582 12.3691 59.678 12.3691C56.8977 12.3691 54.6368 14.6178 54.6368 17.3829V27.4105C53.2907 27.4105 52.0254 27.932 51.0726 28.8796L48.242 31.6936C45.7756 34.1465 40.4596 34.9726 40.4445 34.9763C36.6119 35.3586 33.7157 38.5436 33.7157 42.383V58.7467C33.7157 59.4386 34.2803 60.0002 34.976 60.0002H48.3352C49.0309 60.0002 49.5955 59.4386 49.5955 58.7467V52.0007L55.6626 48.9836ZM62.1986 34.4098C62.1986 39.6655 59.2621 44.391 54.5359 46.7425L47.7719 50.1054C47.3446 50.3173 47.0749 50.7522 47.0749 51.226V57.4933H36.2363V42.383C36.2363 39.836 38.157 37.7239 40.7054 37.4694C40.718 37.4657 47.1027 36.3727 50.024 33.4659L52.8547 30.6519C53.5756 29.935 54.6065 29.7532 55.4761 30.0591H55.4774C56.4831 30.4125 57.1574 31.3626 57.1574 32.4231C57.1574 33.0924 56.8952 33.7216 56.4188 34.1954L49.9648 40.6156C49.4733 41.1057 49.4733 41.8991 49.9648 42.388C50.4576 42.8781 51.2554 42.8768 51.7469 42.388L58.2009 35.9678C59.1537 35.0202 59.678 33.7617 59.678 32.4231C59.678 30.6131 58.6949 28.9648 57.1574 28.0811V17.3817C57.1574 15.9991 58.2879 14.8748 59.678 14.8748C61.0681 14.8748 62.1986 15.9991 62.1986 17.3817V34.4098Z" fill="#FFA73B"/>
<path d="M50.4739 5.10929C50.0025 4.91501 49.4606 5.0228 49.1002 5.38129C47.7126 6.76134 45.8687 7.52093 43.9065 7.52093C39.6907 7.52093 35.9451 9.55527 33.6072 12.6876C33.0048 10.1231 31.0866 7.67385 31.0866 7.67385C28.7488 4.54148 25.0032 2.50713 20.7874 2.50713C18.8251 2.50713 16.9813 1.74754 15.5937 0.367498C15.2333 0.00901139 14.6913 -0.0987852 14.22 0.0954993C13.7486 0.289784 13.4424 0.747292 13.4424 1.25369V7.30533C13.4424 14.3359 19.1932 20.0554 26.2622 20.0554H31.0866V28.8295C31.0866 29.5215 31.6513 30.083 32.3469 30.083C33.0426 30.083 33.6072 29.5215 33.6072 28.8295V25.0692H38.4317C45.5007 25.0692 51.2515 19.3497 51.2515 12.3191V6.26748C51.2515 5.76109 50.944 5.30358 50.4739 5.10929ZM31.0866 16.2951L23.0207 10.2785C22.4636 9.86362 21.6734 9.97518 21.2563 10.5292C20.8391 11.0832 20.9513 11.8691 21.5083 12.284L28.566 17.5485H26.2622C20.5833 17.5485 15.963 12.9534 15.963 7.30533V3.7656C17.4199 4.58034 19.0709 5.01403 20.7874 5.01403C26.4664 5.01403 31.0866 9.60917 31.0866 15.2572V16.2951ZM48.7309 12.3191C48.7309 17.9672 44.1106 22.5623 38.4317 22.5623H36.1279L43.1856 17.2978C43.7426 16.8829 43.8548 16.097 43.4376 15.543C43.0205 14.989 42.2302 14.8762 41.6732 15.2923L33.6072 21.3089V20.271C33.6072 14.623 38.2275 10.0278 43.9065 10.0278C45.623 10.0278 47.274 9.59413 48.7309 8.77939V12.3191Z" fill="#FFA73B"/>
</svg>
