<svg width="74" height="46" viewBox="0 0 74 46" fill="none" xmlns="http://www.w3.org/2000/svg">
<path d="M73.9919 30.046C73.9182 29.4504 73.3791 29.0272 72.7837 29.0997L64.4313 30.1301C63.447 30.2518 62.5509 29.5475 62.4295 28.5635L62.3442 27.8664L62.324 27.7055L59.562 5.20352C59.5028 4.72673 59.6343 4.25429 59.9291 3.87604C60.224 3.49634 60.6489 3.25577 61.1259 3.19781L69.4783 2.16741C70.0723 2.0935 70.4943 1.55149 70.422 0.955865C70.3483 0.360236 69.8092 -0.0629354 69.2138 0.00952547L60.8614 1.03992C58.8206 1.29208 57.3305 3.06593 57.384 5.08759L55.2782 5.347L48.7555 1.66598C47.832 1.14426 46.7856 0.919635 45.7276 1.01818C45.7247 1.01818 45.7233 1.01963 45.7218 1.01963L45.1769 1.07035L45.1856 1.02108L39.6732 1.60511C39.5981 1.59642 39.5229 1.59497 39.4449 1.60222L34.9456 2.01959C33.7778 2.12828 32.6939 2.63116 31.8585 3.41954L28.5242 2.43262C28.5155 2.42972 28.5068 2.42682 28.4981 2.42392L28.4461 2.40943L28.066 2.29639L28.0646 2.30364L26.0729 1.75149C24.2143 1.23556 22.2255 2.11089 21.3439 3.83256L20.0359 6.39043L16.5094 6.14986L16.5932 5.46873C16.8606 3.29345 15.3126 1.30658 13.1432 1.03847L4.78795 0.00807625C4.19249 -0.0643847 3.65339 0.358787 3.57968 0.954416C3.50597 1.55004 3.92944 2.09205 4.52346 2.16596L12.8759 3.19636C13.3514 3.25577 13.7763 3.49634 14.0711 3.87459C14.366 4.25429 14.496 4.72528 14.4382 5.20208L11.5708 28.5635C11.4494 29.5489 10.5518 30.2518 9.56901 30.1301L1.21661 29.0997C0.621143 29.0272 0.0820446 29.4504 0.00833416 30.046C-0.0653763 30.6417 0.358097 31.1837 0.952117 31.2576L9.30452 32.288C9.46784 32.3083 9.63116 32.3184 9.79159 32.3184C11.2557 32.3184 12.5767 31.5025 13.2603 30.2591L16.229 30.4562C15.8749 31.1445 15.7376 31.9242 15.846 32.7082C15.9847 33.7111 16.5036 34.6009 17.3086 35.2125C17.972 35.7168 18.7655 35.982 19.5835 35.982C19.7584 35.982 19.9333 35.9704 20.1082 35.9458C20.1197 35.9443 20.1298 35.9414 20.1414 35.94C20.1428 35.9516 20.1443 35.9632 20.1457 35.9733C20.2845 36.9762 20.8034 37.866 21.6084 38.4761C22.2891 38.9935 23.0913 39.2442 23.8862 39.2442C24.0726 39.2442 24.2591 39.2283 24.4426 39.2022C24.5669 40.1775 25.067 41.1036 25.9082 41.7427C26.5903 42.26 27.391 42.5093 28.186 42.5093C28.3724 42.5093 28.5574 42.4948 28.741 42.4673C28.7424 42.4789 28.7438 42.4919 28.7453 42.5035C28.884 43.5064 29.4029 44.3962 30.2079 45.0063C30.8713 45.5106 31.6648 45.7758 32.4828 45.7758C32.6577 45.7758 32.8326 45.7642 33.0075 45.7396C33.6304 45.6527 34.21 45.4193 34.7043 45.0585C36.2045 45.7193 40.5361 47.0613 43.1665 42.0702C43.9137 41.8514 44.5945 41.4195 45.1191 40.8108L46.5847 39.1051C46.985 39.2964 47.4157 39.421 47.8609 39.4746C49.2137 39.6341 50.5506 39.1109 51.4409 38.0776L52.9079 36.3704C54.5309 37.1428 56.5356 36.7718 57.7641 35.3444L58.3162 34.7024C58.9131 34.0067 59.205 33.1198 59.1371 32.2054C59.0692 31.2909 58.6501 30.4562 57.9577 29.8576L57.0674 29.0895L60.3194 29.0866C60.6749 30.9648 62.3226 32.3184 64.2101 32.3184C64.3706 32.3184 64.5339 32.3083 64.6972 32.288L73.0496 31.2576C73.6422 31.1851 74.0642 30.6431 73.9919 30.046ZM21.7023 32.0749L20.8771 33.1676C20.6169 33.5126 20.2382 33.7343 19.8119 33.7937C19.3855 33.8531 18.9606 33.7415 18.6181 33.4807C18.2741 33.2198 18.0529 32.8401 17.9937 32.4126C17.9344 31.9851 18.0457 31.559 18.3059 31.2155L19.1311 30.1228C19.3913 29.7779 19.77 29.5562 20.1963 29.4968C20.6227 29.4374 21.0476 29.5489 21.3901 29.8098C21.7341 30.0707 21.9553 30.4504 22.0145 30.8779C22.0723 31.3054 21.9625 31.73 21.7023 32.0749ZM25.1754 36.4327C24.6377 37.1443 23.6246 37.2834 22.9164 36.7458C22.5724 36.4849 22.3513 36.1052 22.292 35.6777C22.2328 35.2502 22.344 34.8241 22.6042 34.4806L23.4295 33.3879L24.1593 32.4227C24.4759 32.0039 24.9586 31.7822 25.4471 31.7822C25.7868 31.7822 26.1278 31.8894 26.4184 32.1097C27.128 32.6474 27.2667 33.6647 26.7305 34.3748L25.1754 36.4327ZM29.4752 39.6978C28.9375 40.4094 27.9244 40.55 27.2162 40.0108C26.8722 39.75 26.651 39.3703 26.5918 38.9428C26.5325 38.5153 26.6438 38.0892 26.904 37.7457L28.4591 35.6864L29.0228 34.94C29.2829 34.5951 29.6616 34.3734 30.088 34.314C30.5143 34.2546 30.9393 34.3661 31.2818 34.627C31.99 35.1647 32.1302 36.1806 31.594 36.8921L29.4752 39.6978ZM32.7098 43.589C32.2819 43.6484 31.8585 43.5368 31.5159 43.2759C31.172 43.0151 30.9508 42.6354 30.8916 42.2079C30.8323 41.7803 30.9436 41.3543 31.2037 41.0108L33.3226 38.2051L33.324 38.2037L33.4454 38.0428C33.7056 37.6979 34.0842 37.4762 34.5106 37.4168C34.937 37.3573 35.3619 37.4689 35.7044 37.7298C36.4126 38.2674 36.5528 39.2848 36.0166 39.9949L33.7749 42.9644C33.5148 43.3078 33.1361 43.5296 32.7098 43.589ZM56.6729 33.2836L56.1208 33.9256C55.4285 34.7299 54.2101 34.8198 53.405 34.1256C53.3602 34.0864 53.3125 34.0531 53.2634 34.0227L49.588 30.846C49.1342 30.4547 48.4505 30.5054 48.0589 30.959C47.6672 31.4141 47.7192 32.0996 48.1716 32.4923L51.1576 35.0748L49.7961 36.6603C49.377 37.1472 48.7483 37.3936 48.1123 37.3182C47.7322 37.2733 47.3752 37.1153 47.0818 36.8617C47.0761 36.8574 47.0703 36.853 47.0659 36.8487L43.6521 33.8966C43.1983 33.5053 42.5147 33.556 42.123 34.0096C41.7313 34.4647 41.7834 35.1502 42.2357 35.5429L44.8445 37.7993L43.4744 39.3949C43.0552 39.8819 42.4236 40.1282 41.7877 40.0529C41.1937 39.9819 40.6546 40.4094 40.5852 41.005C40.5361 41.4209 40.7283 41.8079 41.0506 42.0296C40.6213 42.5832 39.0228 44.2817 36.2565 43.2759L37.7437 41.3079C39.0026 39.6413 38.6745 37.2588 37.0124 35.9965C36.1308 35.327 35.0468 35.1052 34.0351 35.2936C33.8761 34.3328 33.3659 33.4836 32.5898 32.8937C31.7848 32.2822 30.7904 32.0213 29.7902 32.1604C29.5417 32.1952 29.3017 32.2532 29.0705 32.3329C28.8508 31.5793 28.3984 30.8866 27.7264 30.3764C26.6207 29.5373 25.1985 29.4026 24.0004 29.8968C23.7619 29.1765 23.3138 28.5446 22.6967 28.078C21.8917 27.4664 20.8973 27.207 19.8971 27.3447C19.0863 27.4577 18.3492 27.8215 17.7754 28.3852L13.8081 28.12L16.2405 8.3121L20.5981 8.60919C20.6227 8.61064 20.6473 8.61209 20.6718 8.61209C21.0765 8.61209 21.4494 8.38601 21.6358 8.0208L23.269 4.82238C23.6824 4.01372 24.6175 3.60214 25.4905 3.84561L27.563 4.4195L27.5529 4.46442L30.364 5.55713L23.3254 17.7045C22.8976 18.4436 22.8152 19.3276 23.1014 20.1334C23.3876 20.9377 24.0076 21.5724 24.8039 21.8739L25.1147 21.9913C26.031 22.3391 26.9762 22.5057 27.9085 22.5057C30.286 22.5057 32.5797 21.4145 34.103 19.4262L36.2768 16.5929C37.4417 17.5987 39.6125 19.0885 42.3846 19.2725L56.5414 31.5068C56.7957 31.7271 56.9504 32.0329 56.9749 32.3691C56.9995 32.7053 56.8926 33.03 56.6729 33.2836ZM56.141 26.9172C55.8808 26.9172 55.6294 27.0114 55.4328 27.1824L55.1307 27.4186L45.3345 18.9523C47.5732 18.3074 49.7065 16.7465 51.7025 14.2887C52.0797 13.8235 52.0103 13.138 51.5464 12.7597C51.0824 12.3801 50.3988 12.4511 50.0216 12.9163C47.7915 15.6625 45.4472 17.0755 43.0523 17.1175C39.5634 17.1828 37.0009 14.2829 36.9777 14.2553C36.7638 14.0075 36.4516 13.8713 36.1265 13.8785C35.8013 13.8872 35.4963 14.0438 35.2983 14.3032L32.386 18.103C30.8525 20.1058 28.238 20.8507 25.8821 19.9595L25.5714 19.8421C25.2982 19.7392 25.187 19.5247 25.145 19.4059C25.1031 19.287 25.054 19.0508 25.2014 18.7986L32.8008 5.68177C33.2922 4.83397 34.1681 4.27313 35.1422 4.18327L39.6414 3.7659C39.6617 3.76445 39.6804 3.7601 39.6992 3.7572L44.7997 3.31664L44.8055 3.28621L45.9242 3.18186C46.5399 3.12534 47.1512 3.25577 47.6889 3.56011L54.4514 7.3759C54.6625 7.51648 54.9212 7.58024 55.1813 7.54836L57.6282 7.24547L59.4218 21.8594L60.0419 26.9128L56.141 26.9172Z" fill="#FFA73B"/>
<path d="M67.0617 22.2C65.3086 22.2 63.8821 23.6303 63.8821 25.3882C63.8821 27.1461 65.3086 28.5765 67.0617 28.5765C68.8149 28.5765 70.2414 27.1461 70.2414 25.3882C70.2414 23.6303 68.8149 22.2 67.0617 22.2ZM67.0617 26.4027C66.5039 26.4027 66.05 25.9476 66.05 25.3882C66.05 24.8288 66.5039 24.3738 67.0617 24.3738C67.6196 24.3738 68.0735 24.8288 68.0735 25.3882C68.0735 25.9476 67.6196 26.4027 67.0617 26.4027Z" fill="#FFA73B"/>
<path d="M9.99971 25.3882C9.99971 23.6303 8.5732 22.2 6.82005 22.2C5.06689 22.2 3.64038 23.6303 3.64038 25.3882C3.64038 27.1461 5.06689 28.5765 6.82005 28.5765C8.5732 28.5765 9.99971 27.1461 9.99971 25.3882ZM5.80833 25.3882C5.80833 24.8288 6.26216 24.3738 6.82005 24.3738C7.37793 24.3738 7.83176 24.8288 7.83176 25.3882C7.83176 25.9476 7.37793 26.4027 6.82005 26.4027C6.26216 26.4027 5.80833 25.9476 5.80833 25.3882Z" fill="#FFA73B"/>
</svg>
