<svg width="60" height="60" viewBox="0 0 60 60" fill="none" xmlns="http://www.w3.org/2000/svg">
<path d="M33.3451 38.0081C32.9701 37.7034 32.4194 37.7503 32.1031 38.1252L29.6192 41.1481L28.6819 40.3396C28.3187 40.0233 27.7563 40.0584 27.44 40.4334C27.1236 40.7966 27.1588 41.359 27.5337 41.6753L29.1506 43.0813C29.3146 43.2219 29.5138 43.2922 29.7247 43.2922C29.7481 43.2922 29.7715 43.2922 29.795 43.2922C30.0293 43.2688 30.2519 43.1516 30.4042 42.9758L33.4622 39.25C33.7786 38.8751 33.72 38.3244 33.3451 38.0081Z" fill="#FFA73B"/>
<path d="M54.2589 50.8729C54.1066 50.826 53.9543 50.7909 53.8137 50.744C53.6145 50.6854 53.4622 50.4042 53.3451 50.1347C55.6063 48.5647 57.2935 45.8817 57.2935 43.5267V41.3943C57.2935 38.7581 56.4734 36.5319 54.9151 34.9385C53.5208 33.5091 51.6344 32.7006 49.6075 32.6655C49.5958 32.6655 49.5841 32.6655 49.5841 32.6655C47.5571 32.7006 45.6825 33.5091 44.2765 34.9385C42.7182 36.5319 41.8981 38.7698 41.8981 41.3943V43.5267C41.8981 45.8699 43.5852 48.5647 45.8465 50.1347C45.7294 50.4159 45.577 50.6854 45.3779 50.744C45.2255 50.7909 45.0732 50.826 44.9209 50.8729C44.1593 51.0838 43.3158 51.3181 42.5073 51.6696L36.3562 45.3427C37.3286 44.0773 37.9262 42.4956 37.9262 40.7616C37.9262 36.9654 35.1025 33.8254 31.4704 33.4036V27.3111H39.754C40.539 27.3111 41.1834 26.6667 41.1834 25.8699V24.0305C41.1834 19.7657 37.8676 18.8635 35.4423 18.1957C35.29 18.1605 35.1494 18.1137 34.9971 18.0785C34.7979 18.0199 34.6456 17.7387 34.5284 17.4692C36.7897 15.8992 38.4769 13.2162 38.4769 10.8729V8.72876C38.4769 6.09256 37.6567 3.86643 36.0984 2.27299C34.6924 0.843585 32.8061 0.0351494 30.7791 0C30.7674 0 30.7557 0 30.7557 0C28.7288 0.0351494 26.8541 0.843585 25.4482 2.27299C23.8899 3.86643 23.0697 6.10428 23.0697 8.72876V10.8612C23.0697 13.2045 24.7569 15.8992 27.0182 17.4575C26.901 17.7387 26.737 18.0199 26.5495 18.0668C26.4089 18.1019 26.2566 18.1488 26.1043 18.1839C23.679 18.8401 20.3632 19.7422 20.3632 24.0187V25.8582C20.3632 26.655 21.0076 27.2994 21.7926 27.2994H29.7247V33.4036C26.1511 33.8723 23.3861 36.9889 23.3861 40.7499C23.3861 42.4839 23.9719 44.0656 24.9561 45.331L19.0041 51.5407C17.8559 50.6268 16.3562 50.2168 15.1025 49.877C14.9502 49.8301 14.7979 49.795 14.6456 49.7481C14.4464 49.6895 14.2941 49.4083 14.1769 49.1388C16.4382 47.5688 18.1254 44.8858 18.1254 42.5308V40.4218C18.1254 37.7856 17.3052 35.5595 15.7469 33.966C14.3527 32.5366 12.4663 31.7282 10.4394 31.693C10.4277 31.693 10.4159 31.693 10.4159 31.693C8.38899 31.7282 6.51435 32.5366 5.10838 33.966C3.55009 35.5595 2.72994 37.7973 2.72994 40.4218V42.5542C2.72994 44.8975 4.41711 47.5923 6.67838 49.1623C6.56122 49.4435 6.39719 49.7129 6.20973 49.7715C6.05741 49.8184 5.9051 49.8535 5.7645 49.9004C3.31576 50.5448 0 51.4587 0 55.7235V57.563C0 58.3597 0.644405 59.0041 1.42941 59.0041H8.4007C8.88108 59.0041 9.27944 58.6057 9.27944 58.1254C9.27944 57.645 8.88108 57.2466 8.4007 57.2466H1.75747V55.7235C1.75747 53.3685 3.01113 52.56 5.13181 51.8922L9.02168 54.2238C9.52548 54.5518 9.97071 54.7159 10.4159 54.7159C10.8612 54.7159 11.3064 54.5518 11.8102 54.2238L15.7001 51.8922C17.8207 52.56 19.0744 53.3685 19.0744 55.7235V57.2466H12.232C11.7516 57.2466 11.3533 57.645 11.3533 58.1254C11.3533 58.6057 11.7516 59.0041 12.232 59.0041H19.4025C20.1875 59.0041 20.8319 58.3597 20.8319 57.563V55.7235C20.8319 54.5518 20.5741 53.6262 20.164 52.8998L26.198 46.5964C27.4282 47.5806 28.9865 48.1664 30.662 48.1664C32.3492 48.1664 33.8957 47.5806 35.1377 46.5964L40.949 52.6069C39.918 53.4505 39.1799 54.7159 39.1799 56.7194V58.5589C39.1799 59.3556 39.8243 60 40.6093 60H47.7446C48.225 60 48.6233 59.6016 48.6233 59.1213C48.6233 58.6409 48.225 58.2425 47.7446 58.2425H40.9373V56.7194C40.9373 54.3644 42.191 53.5559 44.3117 52.8881L48.2015 55.2197C48.7053 55.5477 49.1506 55.7118 49.5958 55.7118C50.041 55.7118 50.4862 55.5477 50.99 55.2197L54.8799 52.8881C56.9772 53.5442 58.2308 54.3527 58.2308 56.7077V58.2308H51.7048C51.2244 58.2308 50.826 58.6292 50.826 59.1096C50.826 59.5899 51.2244 59.9883 51.7048 59.9883H58.5589C59.3439 59.9883 59.9883 59.3439 59.9883 58.5472V56.7077C59.9883 52.4429 56.6725 51.5407 54.2589 50.8729ZM10.4159 33.4388C13.0521 33.4856 15.8641 35.3486 16.2976 39.3087C15.911 39.133 15.6649 38.8752 15.3954 38.594C14.9854 38.1722 14.4581 37.6098 13.5091 37.6098C13.2865 37.6098 13.0287 37.645 12.7592 37.7153C12.396 37.809 12.0914 37.891 11.8336 37.9613C11.0838 38.1605 10.7206 38.266 10.4159 38.266C10.1113 38.266 9.7481 38.1605 8.99824 37.9613C8.74048 37.891 8.42414 37.809 8.07264 37.7153C6.63152 37.3404 5.94025 38.0668 5.43644 38.594C5.16696 38.8752 4.92091 39.133 4.53427 39.3087C4.96778 35.3603 7.77973 33.4974 10.4159 33.4388ZM4.46397 42.5542V41.1716C5.64734 40.8904 6.26831 40.2578 6.6901 39.8125C7.12361 39.3673 7.18219 39.3087 7.6157 39.4142C7.96719 39.5079 8.27182 39.5899 8.52958 39.6602C9.3966 39.8946 9.87698 40.0234 10.4042 40.0234C10.9315 40.0234 11.4118 39.8946 12.2789 39.6602C12.5366 39.5899 12.8412 39.5079 13.1927 39.4142C13.6262 39.297 13.6848 39.3556 14.1183 39.8125C14.5518 40.2578 15.1611 40.8904 16.3445 41.1716V42.5542C16.3445 44.7686 14.2238 47.522 11.7985 48.4359C10.7674 48.8225 10.041 48.8225 8.99824 48.4359C6.58465 47.522 4.46397 44.7686 4.46397 42.5542ZM10.8846 52.7241C10.8729 52.7358 10.8612 52.7358 10.8494 52.7475C10.4277 53.0287 10.3925 53.0287 9.97071 52.7475C9.95899 52.7358 9.94728 52.7358 9.93556 52.7241L7.29936 51.1424C7.73287 50.8377 8.01406 50.3925 8.20152 49.9941C8.26011 50.0176 8.33041 50.041 8.38899 50.0762C9.10369 50.3456 9.75981 50.4862 10.4159 50.4862C11.0721 50.4862 11.7165 50.3456 12.4312 50.0762C12.4897 50.0527 12.56 50.0293 12.6186 49.9941C12.8061 50.3925 13.0873 50.826 13.5208 51.1424L10.8846 52.7241ZM30.7674 1.75747C33.4036 1.80434 36.2156 3.66725 36.6608 7.62742C36.2742 7.45167 36.0281 7.19391 35.7586 6.91271C35.3486 6.49092 34.8213 5.92853 33.8723 5.92853C33.6497 5.92853 33.3919 5.96368 33.1224 6.03398C32.7709 6.12771 32.4663 6.20972 32.2086 6.28002C31.4587 6.49092 31.0721 6.58465 30.7674 6.58465C30.4628 6.58465 30.0879 6.4792 29.338 6.28002C29.0803 6.20972 28.7756 6.12771 28.4241 6.03398C26.983 5.65905 26.2917 6.38547 25.7879 6.91271C25.5185 7.19391 25.2724 7.45167 24.8858 7.62742C25.3193 3.66725 28.1312 1.80434 30.7674 1.75747ZM24.8272 10.8612V9.49033C26.0105 9.20914 26.6315 8.57645 27.065 8.13122C27.4985 7.686 27.5571 7.62742 27.9906 7.73286C28.3421 7.8266 28.635 7.90861 28.8928 7.97891C29.7715 8.21324 30.2519 8.35384 30.7909 8.35384C31.3298 8.35384 31.8102 8.22496 32.6889 7.97891C32.9467 7.90861 33.2396 7.8266 33.5794 7.73286C34.0129 7.6157 34.0715 7.67428 34.505 8.13122C34.9385 8.57645 35.5477 9.22086 36.7428 9.49033V10.8729C36.7428 13.0521 34.5753 15.8524 32.1968 16.7545C31.1658 17.1412 30.4277 17.1412 29.3966 16.7545C26.9947 15.8407 24.8272 13.0404 24.8272 10.8612ZM33.8723 19.461L31.2361 21.031C31.2244 21.0428 31.2127 21.0428 31.2009 21.0545C30.7791 21.3357 30.744 21.3357 30.3222 21.0545C30.3105 21.0428 30.2988 21.0428 30.2871 21.031L27.6509 19.461C28.0844 19.1564 28.3656 18.7112 28.553 18.3128C28.6116 18.3363 28.6819 18.3597 28.7405 18.3831C29.4552 18.6526 30.1113 18.7932 30.7557 18.7932C31.4118 18.7932 32.0562 18.6526 32.7709 18.3831C32.8295 18.3597 32.8998 18.3363 32.9584 18.3011C33.1693 18.7112 33.4388 19.1447 33.8723 19.461ZM22.1207 25.5536V24.0305C22.1207 21.6755 23.3743 20.867 25.495 20.2109L29.3849 22.5425C29.8887 22.8705 30.3339 23.0346 30.7791 23.0346C31.2244 23.0346 31.6696 22.8705 32.1734 22.5425L36.0633 20.2109C38.184 20.8787 39.4376 21.6872 39.4376 24.0305V25.5536H22.1207ZM30.6503 46.4089C27.6157 46.4089 25.1318 43.8782 25.1318 40.7616C25.1318 37.645 27.604 35.1142 30.6503 35.1142C33.6965 35.1142 36.1687 37.645 36.1687 40.7616C36.1687 43.8664 33.6965 46.4089 30.6503 46.4089ZM49.5724 34.4347C52.2086 34.4815 55.0205 36.3445 55.454 40.3046C55.0674 40.1289 54.8213 39.8711 54.5518 39.5899C54.048 39.0627 53.3451 38.3363 51.9156 38.7112C51.5524 38.8049 51.2478 38.8869 50.99 38.9572C50.2402 39.1564 49.877 39.2619 49.5724 39.2619C49.2677 39.2619 48.9045 39.1564 48.1547 38.9572C47.8969 38.8869 47.5806 38.8049 47.2291 38.7112C45.7997 38.3363 45.0967 39.0627 44.5929 39.5899C44.3234 39.8711 44.0773 40.1289 43.6907 40.3046C44.1359 36.3445 46.9479 34.4815 49.5724 34.4347ZM43.6321 43.5384V42.1558C44.8155 41.8746 45.4364 41.2419 45.8582 40.7967C46.2917 40.3515 46.3503 40.2929 46.7838 40.3984C47.1353 40.4921 47.44 40.5741 47.6977 40.6444C48.5647 40.8787 49.0451 41.0076 49.5724 41.0076C50.0996 41.0076 50.58 40.8787 51.447 40.6444C51.7048 40.5741 52.0094 40.4921 52.3609 40.3984C52.7944 40.2812 52.853 40.3398 53.2865 40.7967C53.72 41.2419 54.3292 41.8746 55.5126 42.1558V43.5384C55.5126 45.7528 53.3919 48.5061 50.9666 49.42C49.9356 49.8067 49.1974 49.8067 48.1664 49.42C45.7528 48.5061 43.6321 45.7528 43.6321 43.5384ZM50.0527 53.7083C50.041 53.72 50.0293 53.72 50.0176 53.7317C49.5958 54.0129 49.5606 54.0129 49.1388 53.7317C49.1271 53.72 49.1154 53.72 49.1037 53.7083L46.4675 52.1383C46.901 51.8336 47.1822 51.3884 47.3697 50.99C47.4282 51.0135 47.4985 51.0369 47.5571 51.0721C48.2718 51.3415 48.9279 51.4821 49.5724 51.4821C50.2285 51.4821 50.8729 51.3415 51.5993 51.0721C51.6579 51.0486 51.7282 51.0252 51.7868 51.0018C51.9742 51.4001 52.2554 51.8336 52.6889 52.15L50.0527 53.7083Z" fill="#FFA73B"/>
</svg>
