<svg width="60" height="60" viewBox="0 0 60 60" fill="none" xmlns="http://www.w3.org/2000/svg">
<path d="M18.3871 46.4516C19.9839 46.4516 21.2903 45.1452 21.2903 43.5484C21.2903 41.9516 19.9839 40.6452 18.3871 40.6452C16.7903 40.6452 15.4839 41.9516 15.4839 43.5484C15.4839 45.1452 16.7903 46.4516 18.3871 46.4516ZM18.3871 42.5806C18.9194 42.5806 19.3548 43.0161 19.3548 43.5484C19.3548 44.0806 18.9194 44.5161 18.3871 44.5161C17.8548 44.5161 17.4194 44.0806 17.4194 43.5484C17.4194 43.0161 17.8548 42.5806 18.3871 42.5806ZM0 58.0645H60V60H0V58.0645ZM22.2581 14.5161C22.2581 15.0484 21.8226 15.4839 21.2903 15.4839C20.7581 15.4839 20.3226 15.0484 20.3226 14.5161C20.3226 13.9839 20.7581 13.5484 21.2903 13.5484C21.8226 13.5484 22.2581 13.9839 22.2581 14.5161ZM14.5161 14.5161C14.5161 13.9839 14.9516 13.5484 15.4839 13.5484C16.0161 13.5484 16.4516 13.9839 16.4516 14.5161C16.4516 15.0484 16.0161 15.4839 15.4839 15.4839C14.9516 15.4839 14.5161 15.0484 14.5161 14.5161ZM20.4194 16.9839L22.1492 17.8548L22.0524 18.0605C21.3508 19.4637 19.9476 20.3226 18.3871 20.3226C16.8266 20.3226 15.4234 19.4516 14.7218 18.0605L14.625 17.8548L16.3548 16.9839L16.4516 17.1895C16.8145 17.9274 17.5645 18.3871 18.3871 18.3871C19.2097 18.3871 19.9597 17.9274 20.3226 17.1895L20.4194 16.9839ZM58.0645 0H40.6452C39.5806 0 38.7097 0.870968 38.7097 1.93548V19.3548H30V11.6129C30 5.21371 24.7863 0 18.3871 0C11.9879 0 6.77419 5.21371 6.77419 11.6129V26.6371C6.375 26.8064 5.97581 27 5.58871 27.2177C2.14113 29.1774 0 32.8669 0 36.8347V45.4839C0 48.1573 2.16532 50.3226 4.83871 50.3226H5.80645V52.2581C5.80645 54.3871 7.54839 56.129 9.67742 56.129H27.0968C29.2258 56.129 30.9677 54.3871 30.9677 52.2581V50.3226H31.9355C34.6089 50.3226 36.7742 48.1573 36.7742 45.4839V44.5161H58.0645C59.129 44.5161 60 43.6452 60 42.5806V25.1613C60 24.0968 59.129 23.2258 58.0645 23.2258H40.6452C39.5806 23.2258 38.7097 24.0968 38.7097 25.1613V42.5806H36.7742V36.8347C36.7742 32.8669 34.6331 29.1774 31.1855 27.2056C30.7984 26.9879 30.3992 26.7944 30 26.625V21.2903H58.0645C59.129 21.2903 60 20.4194 60 19.3548V1.93548C60 0.870968 59.129 0 58.0645 0ZM46.4516 31.9355C46.4516 30.3387 47.7581 29.0323 49.3548 29.0323C50.9516 29.0323 52.2581 30.3387 52.2581 31.9355C52.2581 33.5323 50.9516 34.8387 49.3548 34.8387C47.7581 34.8387 46.4516 33.5323 46.4516 31.9355ZM54.1935 42.5806H44.5161V41.6129C44.5161 38.9395 46.6814 36.7742 49.3548 36.7742C52.0282 36.7742 54.1935 38.9395 54.1935 41.6129V42.5806ZM40.6452 25.1613H58.0645V42.5806H56.129V41.6129C56.129 39 54.6411 36.7379 52.4758 35.6008C53.5161 34.7177 54.1935 33.4113 54.1935 31.9355C54.1935 29.2621 52.0282 27.0968 49.3548 27.0968C46.6814 27.0968 44.5161 29.2621 44.5161 31.9355C44.5161 33.4113 45.1936 34.7177 46.2339 35.6008C44.0686 36.7258 42.5806 39 42.5806 41.6129V42.5806H40.6452V25.1613ZM28.0645 15.4839C28.0645 16.5484 27.1935 17.4194 26.129 17.4194H26.0564C26.0927 17.1048 26.129 16.7782 26.129 16.4516V11.6129C27.1935 11.6129 28.0645 12.4839 28.0645 13.5484V15.4839ZM18.3871 1.93548C23.2258 1.93548 27.2298 5.50403 27.9435 10.1492C27.3992 9.85887 26.7944 9.67742 26.129 9.67742H25.1613H18.3871C17.3226 9.67742 16.4516 8.80645 16.4516 7.74194C16.4516 6.67742 17.3226 5.80645 18.3871 5.80645C19.4516 5.80645 20.3226 6.67742 20.3226 7.74194H22.2581C22.2581 5.6129 20.5161 3.87097 18.3871 3.87097C16.3911 3.87097 14.7581 5.40726 14.5524 7.35484C13.4274 7.875 12.496 8.68548 11.8185 9.67742H10.6452C9.99193 9.67742 9.375 9.85887 8.83064 10.1492C9.54435 5.50403 13.5484 1.93548 18.3871 1.93548ZM20.8306 24.5323C21.2298 26.0323 22.4879 27.1331 24.0242 27.3508L24.254 27.3871L23.2742 29.0323H13.5363L12.5565 27.3871L12.7863 27.3508C13.6815 27.2298 14.4798 26.7702 15.0847 26.1169H15.5202C16.7903 26.1169 17.8548 25.2944 18.254 24.1694C18.3145 24.1694 18.375 24.1814 18.4234 24.1814C19.2097 24.1814 19.9597 24.0605 20.6734 23.8427L20.8306 24.5323ZM29.0323 50.3226H7.74194V36.7742H29.0323V50.3226ZM16.996 34.8387L14.6734 30.9677H22.0887L19.7661 34.8387H16.996ZM13.5484 24.1935C13.0161 24.1935 12.5806 23.7581 12.5806 23.2258C12.5806 22.6935 13.0161 22.2581 13.5484 22.2581H15.4839C16.0161 22.2581 16.4516 22.6935 16.4516 23.2258C16.4516 23.7581 16.0161 24.1935 15.4839 24.1935H13.5484ZM18.3871 22.2581C18.3266 22.2581 18.2661 22.246 18.2056 22.246C17.8065 21.1331 16.7419 20.3226 15.4839 20.3226H14.0685C13.1129 19.2581 12.5806 17.9032 12.5806 16.4516V13.4758C12.5806 11.7823 13.4758 10.2339 14.879 9.375C15.496 10.6935 16.8266 11.625 18.3871 11.625H24.1935V16.4637C24.1935 19.6573 21.5927 22.2581 18.3871 22.2581ZM8.70968 13.5484C8.70968 12.4839 9.58064 11.6129 10.6452 11.6129H10.9234C10.754 12.2056 10.6452 12.8347 10.6452 13.4758V16.4516C10.6452 16.7782 10.6694 17.1048 10.7177 17.4194H10.6452C9.58064 17.4194 8.70968 16.5484 8.70968 15.4839V13.5484ZM8.70968 18.8226C9.27823 19.1613 9.93145 19.3548 10.6452 19.3548H11.2137C11.4194 19.8629 11.6734 20.3468 11.9758 20.7944C11.4435 21.1331 11.0444 21.6532 10.8266 22.2581H10.6452C9.58064 22.2581 8.70968 21.3871 8.70968 20.3226V18.8226ZM8.70968 23.6613C9.27823 24 9.93145 24.1935 10.6452 24.1935H10.8266C11.0202 24.7379 11.3589 25.1976 11.8185 25.5363L9.52016 25.8629C9.24193 25.8992 8.97581 25.9597 8.70968 26.0202V23.6613ZM6.54435 28.8992C7.54839 28.3185 8.6371 27.9556 9.78629 27.7863L10.4516 27.6895L14.746 34.8387H7.74194C6.67742 34.8387 5.80645 35.7097 5.80645 36.7742V38.7097H1.93548V36.8347C1.93548 33.5685 3.70161 30.5202 6.54435 28.8992ZM4.83871 48.3871C3.24194 48.3871 1.93548 47.0806 1.93548 45.4839V40.6452H5.80645V42.5806H3.87097V44.5161H5.80645V48.3871H4.83871ZM27.0968 54.1935H9.67742C8.6129 54.1935 7.74194 53.3226 7.74194 52.2581H29.0323C29.0323 53.3226 28.1613 54.1935 27.0968 54.1935ZM31.9355 48.3871H30.9677V44.5161H32.9032V42.5806H30.9677V40.6452H34.8387V45.4839C34.8387 47.0806 33.5323 48.3871 31.9355 48.3871ZM34.8387 36.8347V38.7097H30.9677V36.7742C30.9677 35.7097 30.0968 34.8387 29.0323 34.8387H22.0282L26.3226 27.6895L26.9879 27.7863C28.1371 27.9556 29.2258 28.3306 30.2298 28.8992C33.0726 30.5202 34.8387 33.5685 34.8387 36.8347ZM27.254 25.8629L24.2903 25.4395C23.5282 25.3306 22.8992 24.7742 22.6935 24.0242L22.4274 23.0323C23.8306 22.1734 24.9315 20.879 25.5605 19.3427H26.129C26.8427 19.3427 27.496 19.1371 28.0645 18.8105V26.0202C27.7984 25.9597 27.5323 25.8992 27.254 25.8629ZM46.4516 8.70968C46.4516 7.1129 47.7581 5.80645 49.3548 5.80645C50.9516 5.80645 52.2581 7.1129 52.2581 8.70968C52.2581 10.3065 50.9516 11.6129 49.3548 11.6129C47.7581 11.6129 46.4516 10.3065 46.4516 8.70968ZM54.1935 19.3548H44.5161V18.3871C44.5161 15.7137 46.6814 13.5484 49.3548 13.5484C52.0282 13.5484 54.1935 15.7137 54.1935 18.3871V19.3548ZM58.0645 19.3548H56.129V18.3871C56.129 15.7742 54.6411 13.5121 52.4758 12.375C53.5161 11.4919 54.1935 10.1855 54.1935 8.70968C54.1935 6.03629 52.0282 3.87097 49.3548 3.87097C46.6814 3.87097 44.5161 6.03629 44.5161 8.70968C44.5161 10.1855 45.1936 11.4919 46.2339 12.375C44.0686 13.5 42.5806 15.7742 42.5806 18.3871V19.3548H40.6452V1.93548H58.0645V19.3548ZM38.7097 46.4516H48.3871V48.3871H38.7097V46.4516ZM50.3226 46.4516H60V48.3871H50.3226V46.4516ZM58.0645 52.2581H40.6452V50.3226H58.0645V52.2581ZM48.3871 56.129V54.1935H50.3226V56.129H48.3871ZM52.2581 56.129V54.1935H54.1935V56.129H52.2581ZM44.5161 56.129V54.1935H46.4516V56.129H44.5161Z" fill="#FFA73B"/>
</svg>
